module gupshup_pricing

go 1.17

require (
	github.com/joho/godotenv v1.4.0
	github.com/robfig/cron v1.2.0
	github.com/sirupsen/logrus v1.8.1
	github.com/slack-go/slack v0.9.5
)

require (
	github.com/gorilla/websocket v1.4.2 // indirect
	github.com/pkg/errors v0.8.0 // indirect
	golang.org/x/sys v0.0.0-20191026070338-33540a1f6037 // indirect
)
